{
	"use": {
		"components": {
			"ace": {
				"main": {
					"components": {
						"locations": [
							"https://gitlab.com/kaeon/kaeon-united/-/raw/main/Kaeon%20United/2%20-%20Wonders/2%20-%20Source/1%20-%20Code/1%20-%20Interface/1%20-%20Interfaces/1%20-%20Kaeon%20Core/1%20-%20Main%20Interface/kaeonUnitedMainInterface.json"
						]
					}
				},
				"general": {
					"components": {
						"locations": [
							"https://gitlab.com/kaeon/kaeon-united/-/raw/main/Kaeon%20United/2%20-%20Wonders/2%20-%20Source/1%20-%20Code/1%20-%20Interface/1%20-%20Interfaces/1%20-%20Kaeon%20Core/2%20-%20General%20Interface/kaeonUnitedGeneralInterface.json"
						]
					}
				}
			}
		}
	}
}