{
	"use": {
		"entities": {
			"kaeonUnited": {
				"entities": {
					"general": {
						"components": {
							"META": {
								"environment": "javascript",
								"type": "library"
							}
						},
						"entities": {
							"libraries": {
								"entities": {
									"services": {
										"entities": {
											"craiyonUtils": {
												"components": {
													"locations": [
														"https://gitlab.com/kaeon/kaeon-united/-/raw/main/Kaeon%20United/2%20-%20Wonders/2%20-%20Source/1%20-%20Code/2%20-%20APIs/2%20-%20General/1%20-%20Services/1%20-%20Craiyon/craiyonUtils.js"
													]
												}
											},
											"githubUtils": {
												"components": {
													"locations": [
														"https://gitlab.com/kaeon/kaeon-united/-/raw/main/Kaeon%20United/2%20-%20Wonders/2%20-%20Source/1%20-%20Code/2%20-%20APIs/2%20-%20General/1%20-%20Services/2%20-%20Github/githubUtils.js"
													]
												}
											},
											"nearpasteUtils": {
												"components": {
													"locations": [
														"https://gitlab.com/kaeon/kaeon-united/-/raw/main/Kaeon%20United/2%20-%20Wonders/2%20-%20Source/1%20-%20Code/2%20-%20APIs/2%20-%20General/1%20-%20Services/3%20-%20NEAR%20Paste/nearpasteUtils.js"
													]
												}
											},
											"redditUtils": {
												"components": {
													"locations": [
														"https://gitlab.com/kaeon/kaeon-united/-/raw/main/Kaeon%20United/2%20-%20Wonders/2%20-%20Source/1%20-%20Code/2%20-%20APIs/2%20-%20General/1%20-%20Services/4%20-%20Reddit/redditUtils.js"
													]
												}
											},
											"wikipediaUtils": {
												"components": {
													"locations": [
														"https://gitlab.com/kaeon/kaeon-united/-/raw/main/Kaeon%20United/2%20-%20Wonders/2%20-%20Source/1%20-%20Code/2%20-%20APIs/2%20-%20General/1%20-%20Services/5%20-%20Wikipedia/wikipediaUtils.js"
													]
												}
											},
											"youUtils": {
												"components": {
													"locations": [
														"https://gitlab.com/kaeon/kaeon-united/-/raw/main/Kaeon%20United/2%20-%20Wonders/2%20-%20Source/1%20-%20Code/2%20-%20APIs/2%20-%20General/1%20-%20Services/6%20-%20You/youUtils.js"
													]
												}
											},
											"youtubeUtils": {
												"components": {
													"locations": [
														"https://gitlab.com/kaeon/kaeon-united/-/raw/main/Kaeon%20United/2%20-%20Wonders/2%20-%20Source/1%20-%20Code/2%20-%20APIs/2%20-%20General/1%20-%20Services/7%20-%20YouTube/youtubeUtils.js"
													]
												}
											}
										}
									},
									"generalReference": {
										"components": {
											"locations": [
												"https://gitlab.com/kaeon/kaeon-united/-/raw/main/Kaeon%20United/2%20-%20Wonders/2%20-%20Source/1%20-%20Code/2%20-%20APIs/2%20-%20General/generalReference.js"
											]
										}
									}
								}
							}
						}
					}
				}
			}
		}
	}
}